# Fdb version 3
["pdflatex"] 1480326098 "Rapport-TP1.tex" "Rapport-TP1.pdf" "Rapport-TP1" 1480326098
  "/usr/share/texmf-dist/fonts/map/fontname/texfonts.map" 1479649810 3287 e6b82fe08f5336d4d5ebc73fb1152e87 ""
  "/usr/share/texmf-dist/fonts/tfm/public/amsfonts/cmextra/cmex7.tfm" 1479649815 1004 54797486969f23fa377b128694d548df ""
  "/usr/share/texmf-dist/fonts/tfm/public/amsfonts/cmextra/cmex8.tfm" 1479649815 988 bdf658c3bfc2d96d3c8b02cfc1c94c20 ""
  "/usr/share/texmf-dist/fonts/tfm/public/amsfonts/symbols/msam10.tfm" 1479649815 916 f87d7c45f9c908e672703b83b72241a3 ""
  "/usr/share/texmf-dist/fonts/tfm/public/amsfonts/symbols/msam7.tfm" 1479649815 928 2dc8d444221b7a635bb58038579b861a ""
  "/usr/share/texmf-dist/fonts/tfm/public/amsfonts/symbols/msbm10.tfm" 1479649815 908 2921f8a10601f252058503cc6570e581 ""
  "/usr/share/texmf-dist/fonts/tfm/public/amsfonts/symbols/msbm7.tfm" 1479649815 940 228d6584342e91276bf566bcf9716b83 ""
  "/usr/share/texmf-dist/fonts/tfm/public/cm/cmbx12.tfm" 1479649815 1324 c910af8c371558dc20f2d7822f66fe64 ""
  "/usr/share/texmf-dist/fonts/tfm/public/cm/cmcsc10.tfm" 1479649815 1300 63a6111ee6274895728663cf4b4e7e81 ""
  "/usr/share/texmf-dist/fonts/tfm/public/cm/cmex10.tfm" 1479649815 992 662f679a0b3d2d53c1b94050fdaa3f50 ""
  "/usr/share/texmf-dist/fonts/tfm/public/cm/cmmi12.tfm" 1479649815 1524 4414a8315f39513458b80dfc63bff03a ""
  "/usr/share/texmf-dist/fonts/tfm/public/cm/cmmi6.tfm" 1479649815 1512 f21f83efb36853c0b70002322c1ab3ad ""
  "/usr/share/texmf-dist/fonts/tfm/public/cm/cmmi8.tfm" 1479649815 1520 eccf95517727cb11801f4f1aee3a21b4 ""
  "/usr/share/texmf-dist/fonts/tfm/public/cm/cmr12.tfm" 1479649815 1288 655e228510b4c2a1abe905c368440826 ""
  "/usr/share/texmf-dist/fonts/tfm/public/cm/cmr17.tfm" 1479649815 1292 296a67155bdbfc32aa9c636f21e91433 ""
  "/usr/share/texmf-dist/fonts/tfm/public/cm/cmr6.tfm" 1479649815 1300 b62933e007d01cfd073f79b963c01526 ""
  "/usr/share/texmf-dist/fonts/tfm/public/cm/cmr8.tfm" 1479649815 1292 21c1c5bfeaebccffdb478fd231a0997d ""
  "/usr/share/texmf-dist/fonts/tfm/public/cm/cmsy10.tfm" 1479649815 1124 6c73e740cf17375f03eec0ee63599741 ""
  "/usr/share/texmf-dist/fonts/tfm/public/cm/cmsy6.tfm" 1479649815 1116 933a60c408fc0a863a92debe84b2d294 ""
  "/usr/share/texmf-dist/fonts/tfm/public/cm/cmsy8.tfm" 1479649815 1120 8b7d695260f3cff42e636090a8002094 ""
  "/usr/share/texmf-dist/fonts/tfm/public/cm/cmti12.tfm" 1479649815 1484 ed72f8f5cf654cda15ecc8e32bfcbee5 ""
  "/usr/share/texmf-dist/fonts/type1/public/amsfonts/cm/cmbx12.pfb" 1479649808 32080 340ef9bf63678554ee606688e7b5339d ""
  "/usr/share/texmf-dist/fonts/type1/public/amsfonts/cm/cmcsc10.pfb" 1479649808 32001 6aeea3afe875097b1eb0da29acd61e28 ""
  "/usr/share/texmf-dist/fonts/type1/public/amsfonts/cm/cmr12.pfb" 1479649808 32722 d7379af29a190c3f453aba36302ff5a9 ""
  "/usr/share/texmf-dist/fonts/type1/public/amsfonts/cm/cmsy10.pfb" 1479649808 32569 5e5ddc8df908dea60932f3c484a54c0d ""
  "/usr/share/texmf-dist/fonts/type1/public/amsfonts/cm/cmti12.pfb" 1479649808 36118 fad905eba93cff5bce1e185fe980a177 ""
  "/usr/share/texmf-dist/tex/context/base/mkii/supp-pdf.mkii" 1479649822 71627 94eb9990bed73c364d7f53f960cc8c5b ""
  "/usr/share/texmf-dist/tex/generic/babel-english/english.ldf" 1479649818 6963 2e0cb3d93aa64508bdb0db58ae900d97 ""
  "/usr/share/texmf-dist/tex/generic/babel/babel.def" 1479649818 50112 8190990703f12b57db0dfe9b839e1e24 ""
  "/usr/share/texmf-dist/tex/generic/babel/babel.sty" 1479649818 13499 2379954ebbdf3db89eccb32499d2da36 ""
  "/usr/share/texmf-dist/tex/generic/ifxetex/ifxetex.sty" 1479649818 1458 43ab4710dc82f3edeabecd0d099626b2 ""
  "/usr/share/texmf-dist/tex/generic/oberdiek/etexcmds.sty" 1479649818 7612 729a8cc22a1ee0029997c7f74717ae05 ""
  "/usr/share/texmf-dist/tex/generic/oberdiek/ifluatex.sty" 1479649818 7324 2310d1247db0114eb4726807c8837a0e ""
  "/usr/share/texmf-dist/tex/generic/oberdiek/ifpdf.sty" 1479649818 1226 01a89dfef361f60ae7df13cd2946bc16 ""
  "/usr/share/texmf-dist/tex/generic/oberdiek/ifvtex.sty" 1479649818 6797 90b7f83b0ad46826bc16058b1e3d48df ""
  "/usr/share/texmf-dist/tex/generic/oberdiek/infwarerr.sty" 1479649818 8253 473e0e41f9adadb1977e8631b8f72ea6 ""
  "/usr/share/texmf-dist/tex/generic/oberdiek/kvdefinekeys.sty" 1479649818 5152 b67a3a964ad9851e095110c854a1d461 ""
  "/usr/share/texmf-dist/tex/generic/oberdiek/kvsetkeys.sty" 1479649818 14040 ac8866aac45982ac84021584b0abb252 ""
  "/usr/share/texmf-dist/tex/generic/oberdiek/ltxcmds.sty" 1479649818 18425 5b3c0c59d76fac78978b5558e83c1f36 ""
  "/usr/share/texmf-dist/tex/generic/oberdiek/pdftexcmds.sty" 1479649818 20115 901306eb5d88a0bb40b00d0ce4448e2f ""
  "/usr/share/texmf-dist/tex/generic/pgf/basiclayer/pgfcore.code.tex" 1479649818 1006 b103be0bfc8c1682ff1fa9760697a329 ""
  "/usr/share/texmf-dist/tex/generic/pgf/basiclayer/pgfcorearrows.code.tex" 1479649818 43226 167a99346bfe2676e3efcdde2d81fe45 ""
  "/usr/share/texmf-dist/tex/generic/pgf/basiclayer/pgfcoreexternal.code.tex" 1479649818 19302 4f089dc590e71f7331e6d5b5ea85273b ""
  "/usr/share/texmf-dist/tex/generic/pgf/basiclayer/pgfcoregraphicstate.code.tex" 1479649818 6068 edae1e768a7d8d8f0f00e953d2b0153e ""
  "/usr/share/texmf-dist/tex/generic/pgf/basiclayer/pgfcoreimage.code.tex" 1479649818 7041 a891ad72049e17c4e366c40ca37b0ccb ""
  "/usr/share/texmf-dist/tex/generic/pgf/basiclayer/pgfcorelayers.code.tex" 1479649818 4625 40c07e9f6f2f7c674704b3f2055560ce ""
  "/usr/share/texmf-dist/tex/generic/pgf/basiclayer/pgfcoreobjects.code.tex" 1479649818 2631 7eefa6cdbefd8d4e2bad7262cf1094cd ""
  "/usr/share/texmf-dist/tex/generic/pgf/basiclayer/pgfcorepathconstruct.code.tex" 1479649818 43477 81143b33d9ebafdeead07ede13372427 ""
  "/usr/share/texmf-dist/tex/generic/pgf/basiclayer/pgfcorepathprocessing.code.tex" 1479649818 17436 8d99d4113be311daf23deff86991ee7d ""
  "/usr/share/texmf-dist/tex/generic/pgf/basiclayer/pgfcorepathusage.code.tex" 1479649818 20772 c57e34db4aa7b1da013169d04b743eac ""
  "/usr/share/texmf-dist/tex/generic/pgf/basiclayer/pgfcorepatterns.code.tex" 1479649818 9641 711f0edc22c180a5caf168b6e8970057 ""
  "/usr/share/texmf-dist/tex/generic/pgf/basiclayer/pgfcorepoints.code.tex" 1479649818 34516 658a71478d21df554bce9d9cd436203a ""
  "/usr/share/texmf-dist/tex/generic/pgf/basiclayer/pgfcorequick.code.tex" 1479649818 3052 e5672c657232fd63b0a9853b0746297c ""
  "/usr/share/texmf-dist/tex/generic/pgf/basiclayer/pgfcorescopes.code.tex" 1479649818 16669 4ec6e40088fc6de6334b443fe2dc59f0 ""
  "/usr/share/texmf-dist/tex/generic/pgf/basiclayer/pgfcoreshade.code.tex" 1479649818 21541 4cd19f8ff7dd74d5aa7d803a6397af84 ""
  "/usr/share/texmf-dist/tex/generic/pgf/basiclayer/pgfcoretransformations.code.tex" 1479649818 19998 d77fef95c7369827753d17fd11be19c4 ""
  "/usr/share/texmf-dist/tex/generic/pgf/basiclayer/pgfcoretransparency.code.tex" 1479649818 8943 2e2495b057f8f0035b5568394d489963 ""
  "/usr/share/texmf-dist/tex/generic/pgf/frontendlayer/tikz/libraries/tikzlibrarypositioning.code.tex" 1479649818 4034 0a8cd33cf30d262ec971380666acb2d0 ""
  "/usr/share/texmf-dist/tex/generic/pgf/frontendlayer/tikz/libraries/tikzlibrarytopaths.code.tex" 1479649818 11599 d694704a88e2f9007c996d3a6a4d629c ""
  "/usr/share/texmf-dist/tex/generic/pgf/frontendlayer/tikz/tikz.code.tex" 1479649818 176652 1c2926908e2b356d454795c35385d580 ""
  "/usr/share/texmf-dist/tex/generic/pgf/libraries/pgflibraryplothandlers.code.tex" 1479649817 32969 dbcfd5a7de6a0f7255c333ef60287d59 ""
  "/usr/share/texmf-dist/tex/generic/pgf/math/pgfmath.code.tex" 1479649817 454 9e9e7c99f4da4f41698be21eaef4938e ""
  "/usr/share/texmf-dist/tex/generic/pgf/math/pgfmathcalc.code.tex" 1479649817 13416 940ea6971d7a65dc440d3479939c66ae ""
  "/usr/share/texmf-dist/tex/generic/pgf/math/pgfmathfloat.code.tex" 1479649817 94097 62ac62cda46eb715560dc27f9ed6e8b1 ""
  "/usr/share/texmf-dist/tex/generic/pgf/math/pgfmathfunctions.base.code.tex" 1479649817 9375 5adc70f722abd29fc250d59e0694b548 ""
  "/usr/share/texmf-dist/tex/generic/pgf/math/pgfmathfunctions.basic.code.tex" 1479649817 22069 7c21c42b15718ce922f36235be360490 ""
  "/usr/share/texmf-dist/tex/generic/pgf/math/pgfmathfunctions.code.tex" 1479649817 8210 a7be5b52ef3d2c087b7dc3d52898b67e ""
  "/usr/share/texmf-dist/tex/generic/pgf/math/pgfmathfunctions.comparison.code.tex" 1479649817 3534 c7f28fbac13616513e513efe93b8569b ""
  "/usr/share/texmf-dist/tex/generic/pgf/math/pgfmathfunctions.integerarithmetics.code.tex" 1479649817 3167 7c9394e79aac27db96a92f9b2792b858 ""
  "/usr/share/texmf-dist/tex/generic/pgf/math/pgfmathfunctions.misc.code.tex" 1479649817 9289 261407875b9dbb0194691c3eb893610f ""
  "/usr/share/texmf-dist/tex/generic/pgf/math/pgfmathfunctions.random.code.tex" 1479649817 7078 946ddf4a7e57219b6afdbad98eb6731b ""
  "/usr/share/texmf-dist/tex/generic/pgf/math/pgfmathfunctions.round.code.tex" 1479649817 2688 139c6abc86761a6190c2f4bef5d752be ""
  "/usr/share/texmf-dist/tex/generic/pgf/math/pgfmathfunctions.trigonometric.code.tex" 1479649817 92284 dcf023dbaa84e6c50e11c2f79fe8cfa6 ""
  "/usr/share/texmf-dist/tex/generic/pgf/math/pgfmathparser.code.tex" 1479649817 35430 046e15fbb65e74d8f0e7945f99741fdb ""
  "/usr/share/texmf-dist/tex/generic/pgf/math/pgfmathutil.code.tex" 1479649817 7099 f44d505bae6c7c2b933cdd63441db4b9 ""
  "/usr/share/texmf-dist/tex/generic/pgf/modules/pgfmodulematrix.code.tex" 1479649817 20934 2328bd2e04520e1ab077ac4ee13b8935 ""
  "/usr/share/texmf-dist/tex/generic/pgf/modules/pgfmoduleplot.code.tex" 1479649817 16203 83cbe1220e389eeee283a6168f9a567b ""
  "/usr/share/texmf-dist/tex/generic/pgf/modules/pgfmoduleshapes.code.tex" 1479649817 42906 d54376d96df1a2ae2d33fb722236d8e9 ""
  "/usr/share/texmf-dist/tex/generic/pgf/systemlayer/pgf.cfg" 1479649817 978 15af626ebd3d4d790aac19170dac04f2 ""
  "/usr/share/texmf-dist/tex/generic/pgf/systemlayer/pgfsys-common-pdf.def" 1479649817 5437 d91f93ed61ecdc57e119849b2d784a0b ""
  "/usr/share/texmf-dist/tex/generic/pgf/systemlayer/pgfsys-pdftex.def" 1479649817 13507 809d848d9262638e1b1705a68a73c566 ""
  "/usr/share/texmf-dist/tex/generic/pgf/systemlayer/pgfsys.code.tex" 1479649817 35113 2ccc50c1c9573e4bac9230d030f9c67c ""
  "/usr/share/texmf-dist/tex/generic/pgf/systemlayer/pgfsysprotocol.code.tex" 1479649817 1983 b5994ebbcee17f1ba3d29bb1bd696fcf ""
  "/usr/share/texmf-dist/tex/generic/pgf/systemlayer/pgfsyssoftpath.code.tex" 1479649817 7881 d459d6057e13d10ce7a227ae44b7295e ""
  "/usr/share/texmf-dist/tex/generic/pgf/utilities/pgffor.code.tex" 1479649817 22211 d696ef78c12269178882d218b2cf191d ""
  "/usr/share/texmf-dist/tex/generic/pgf/utilities/pgfkeys.code.tex" 1479649817 36194 e194ef4e0b396b531a3891feb4b1cc22 ""
  "/usr/share/texmf-dist/tex/generic/pgf/utilities/pgfkeysfiltered.code.tex" 1479649817 33377 af391d6ad1bfcbe2278e191f48e43ba8 ""
  "/usr/share/texmf-dist/tex/generic/pgf/utilities/pgfrcs.code.tex" 1479649817 2536 a3b0529d815a2759ba157b56610a6377 ""
  "/usr/share/texmf-dist/tex/generic/pgf/utilities/pgfutil-common-lists.tex" 1479649817 6833 114eda2cf1d348e0e7e477a1a4dc1941 ""
  "/usr/share/texmf-dist/tex/generic/pgf/utilities/pgfutil-common.tex" 1479649817 16501 ab0135765e27b6b8dae047831fe84818 ""
  "/usr/share/texmf-dist/tex/generic/pgf/utilities/pgfutil-latex.def" 1479649817 5544 294baac9629ba59f675b1f2027ad7136 ""
  "/usr/share/texmf-dist/tex/generic/xkeyval/xkeyval.tex" 1479649817 19231 26434a5656c684f5ffb1f26f98006baa ""
  "/usr/share/texmf-dist/tex/generic/xkeyval/xkvutils.tex" 1479649817 7677 6f5ce7c1124cad7ec57d05b2562bd8fe ""
  "/usr/share/texmf-dist/tex/latex/algorithm2e/algorithm2e.sty" 1479580754 164989 3237f4d4426874d9a69857464c581861 ""
  "/usr/share/texmf-dist/tex/latex/amsfonts/amsfonts.sty" 1479649820 5949 3f3fd50a8cc94c3d4cbf4fc66cd3df1c ""
  "/usr/share/texmf-dist/tex/latex/amsfonts/amssymb.sty" 1479649820 13829 94730e64147574077f8ecfea9bb69af4 ""
  "/usr/share/texmf-dist/tex/latex/amsfonts/umsa.fd" 1479649820 961 6518c6525a34feb5e8250ffa91731cff ""
  "/usr/share/texmf-dist/tex/latex/amsfonts/umsb.fd" 1479649820 961 d02606146ba5601b5645f987c92e6193 ""
  "/usr/share/texmf-dist/tex/latex/amsmath/amsbsy.sty" 1479649820 2210 5c54ab129b848a5071554186d0168766 ""
  "/usr/share/texmf-dist/tex/latex/amsmath/amsgen.sty" 1479649820 4160 c115536cf8d4ff25aa8c1c9bc4ecb79a ""
  "/usr/share/texmf-dist/tex/latex/amsmath/amsmath.sty" 1479649820 82033 ff9a037b5bad3f86db2c1a9e5c8160c3 ""
  "/usr/share/texmf-dist/tex/latex/amsmath/amsopn.sty" 1479649820 4115 318a66090112f3aa3f415aeb6fe8540f ""
  "/usr/share/texmf-dist/tex/latex/amsmath/amstext.sty" 1479649820 2431 fe3078ec12fc30287f568596f8e0b948 ""
  "/usr/share/texmf-dist/tex/latex/base/ifthen.sty" 1479649819 5159 a08c9bbd48fc492f15b22e458bef961f ""
  "/usr/share/texmf-dist/tex/latex/base/inputenc.sty" 1479649819 4732 d63eda807ac82cca2ca8488efd31a966 ""
  "/usr/share/texmf-dist/tex/latex/base/omscmr.fd" 1479649819 2256 80ce1168fb4ce6a85583a9cf8972c013 ""
  "/usr/share/texmf-dist/tex/latex/base/report.cls" 1479649819 22880 e7be6f7dd8c05d5108bf3a7d8cabe59a ""
  "/usr/share/texmf-dist/tex/latex/base/size12.clo" 1479649819 8303 1d67e16498f00f63da792fab169302fc ""
  "/usr/share/texmf-dist/tex/latex/geometry/geometry.sty" 1479649819 40502 e003406220954b0716679d7928aedd8a ""
  "/usr/share/texmf-dist/tex/latex/graphics-cfg/color.cfg" 1479649819 1213 620bba36b25224fa9b7e1ccb4ecb76fd ""
  "/usr/share/texmf-dist/tex/latex/graphics-cfg/graphics.cfg" 1479649819 1224 978390e9c2234eab29404bc21b268d1e ""
  "/usr/share/texmf-dist/tex/latex/graphics-def/pdftex.def" 1479649819 57848 020e44545ff7e21278b080e3175d3354 ""
  "/usr/share/texmf-dist/tex/latex/graphics/graphics.sty" 1479649819 14539 727a4716746112f20fd860d095ccebd2 ""
  "/usr/share/texmf-dist/tex/latex/graphics/graphicx.sty" 1479649819 8125 557ab9f1bfa80d369fb45a914aa8a3b4 ""
  "/usr/share/texmf-dist/tex/latex/graphics/keyval.sty" 1479649819 2594 d18d5e19aa8239cf867fa670c556d2e9 ""
  "/usr/share/texmf-dist/tex/latex/graphics/trig.sty" 1479649819 3980 0a268fbfda01e381fa95821ab13b6aee ""
  "/usr/share/texmf-dist/tex/latex/latexconfig/epstopdf-sys.cfg" 1479649819 678 4792914a8f45be57bb98413425e4c7af ""
  "/usr/share/texmf-dist/tex/latex/ms/everyshi.sty" 1479649819 3878 6aa7c08ff2621006e0603349e40a30a8 ""
  "/usr/share/texmf-dist/tex/latex/oberdiek/epstopdf-base.sty" 1479649819 12095 5337833c991d80788a43d3ce26bd1c46 ""
  "/usr/share/texmf-dist/tex/latex/oberdiek/grfext.sty" 1479649819 7075 2fe3d848bba95f139de11ded085e74aa ""
  "/usr/share/texmf-dist/tex/latex/oberdiek/kvoptions.sty" 1479649819 22417 1d9df1eb66848aa31b18a593099cf45c ""
  "/usr/share/texmf-dist/tex/latex/pgf/basiclayer/pgf.sty" 1479649819 1197 8a80cdde14696a9198f1793a55dcf332 ""
  "/usr/share/texmf-dist/tex/latex/pgf/basiclayer/pgfcore.sty" 1479649819 410 5bf12ea7330e5f12c445332a4fe9a263 ""
  "/usr/share/texmf-dist/tex/latex/pgf/compatibility/pgfcomp-version-0-65.sty" 1479649819 21115 facf03b7dbe5ea2f5f1dce1ac84b5d05 ""
  "/usr/share/texmf-dist/tex/latex/pgf/compatibility/pgfcomp-version-1-18.sty" 1479649819 1091 d9163d29def82ee90370c8a63667742c ""
  "/usr/share/texmf-dist/tex/latex/pgf/frontendlayer/tikz.sty" 1479649819 339 592cf35cba3d400082b8a9a5d0199d70 ""
  "/usr/share/texmf-dist/tex/latex/pgf/math/pgfmath.sty" 1479649819 306 0796eafca5e159e6ec2167a6d22d81b1 ""
  "/usr/share/texmf-dist/tex/latex/pgf/systemlayer/pgfsys.sty" 1479649819 443 0b2e781830192df35c0fd357cf13e26e ""
  "/usr/share/texmf-dist/tex/latex/pgf/utilities/pgffor.sty" 1479649819 348 8927fde343487e003b01a4c2ca34073b ""
  "/usr/share/texmf-dist/tex/latex/pgf/utilities/pgfkeys.sty" 1479649819 274 4cad6e665cc93ac2ac979039a94fa1e1 ""
  "/usr/share/texmf-dist/tex/latex/pgf/utilities/pgfrcs.sty" 1479649819 325 2bcd023400636339210573e2b3ee298b ""
  "/usr/share/texmf-dist/tex/latex/relsize/relsize.sty" 1476971572 15542 c4cc3164fe24f2f2fbb06eb71b1da4c4 ""
  "/usr/share/texmf-dist/tex/latex/todonotes/todonotes.sty" 1476971572 17377 c779de8f9409b6a593160a62fecceac6 ""
  "/usr/share/texmf-dist/tex/latex/tools/calc.sty" 1479649819 10214 d03d065f799d54f6b7e9b175f8d84279 ""
  "/usr/share/texmf-dist/tex/latex/tools/xspace.sty" 1479649819 4544 8b8f59969458e1c25e0559e8e0ced1a4 ""
  "/usr/share/texmf-dist/tex/latex/ucs/data/uni-0.def" 1476971572 7784 086a50b784a20762a031889b73f97126 ""
  "/usr/share/texmf-dist/tex/latex/ucs/data/uni-global.def" 1476971572 1375 8a855db83af5d6753ccbbd32e6a8a901 ""
  "/usr/share/texmf-dist/tex/latex/ucs/ucs.sty" 1476971572 27982 5723d81d568db410592a59b85fb3eaae ""
  "/usr/share/texmf-dist/tex/latex/ucs/ucsencs.def" 1476971572 22368 c53c9d0d16c65bef2b157515c9d9f658 ""
  "/usr/share/texmf-dist/tex/latex/ucs/utf8x.def" 1476971572 8036 21f7ac37aafb6cfeddbb196b8bfd6280 ""
  "/usr/share/texmf-dist/tex/latex/xcolor/xcolor.sty" 1479649818 55589 34128738f682d033422ca125f82e5d62 ""
  "/usr/share/texmf-dist/tex/latex/xkeyval/xkeyval.sty" 1479649818 4962 9c1069474ff71dbc47d5006555e352d3 ""
  "/usr/share/texmf-dist/web2c/texmf.cnf" 1479649825 31669 df537245012f3e5f05bdc55644b7a3df ""
  "/var/lib/texmf/fonts/map/pdftex/updmap/pdftex.map" 1479882873 1867902 2b819c1393b997c4c04cac7fbdf985f7 ""
  "/var/lib/texmf/web2c/pdftex/pdflatex.fmt" 1479882866 7252864 5e512a21cc07b6a12c741008797dcd08 ""
  "HMAC/execution.png" 1477298002 149635 4ba3264d9eb94496879fffe4997e8898 ""
  "Rapport-TP1.aux" 1480326098 166 db7e845c9605d9d9013124913d023cfd ""
  "Rapport-TP1.tex" 1479721069 3223 d179294862f106c695d9926523e7704a ""
  "logo.png" 1476633855 8891 30ac5634285e427af56388c661f1c3ac ""
  (generated)
  "Rapport-TP1.log"
  "Rapport-TP1.pdf"
  "Rapport-TP1.aux"
